Introduction to R-Part 1
…
# `broom::augment()`

- `augment()` takes values generated by a model and adds them back to the original data.

- This includes fitted values, residuals, and leverage statistics.

.smaller[

```r
augment(lm_1) 
```

```
## # A tibble: 200 × 9
##       yn   num1 fac1  .fitted .resid   .hat .sigma   .cooksd .std.resid
##    <dbl>  <dbl> <fct>   <dbl>  <dbl>  <dbl>  <dbl>     <dbl>      <dbl>
##  1 7.58   0.253 C        3.57  4.01  0.0149   2.77 0.00804       1.46  
##  2 0.814  1.18  B        2.97 -2.16  0.0167   2.78 0.00262      -0.784 
##  3 1.94   1.36  B        3.05 -1.11  0.0167   2.78 0.000686     -0.402 
##  4 6.87   2.40  C        4.48  2.39  0.0150   2.78 0.00288       0.869 
##  5 3.37   0.902 A        2.20  1.17  0.0152   2.78 0.000690      0.423 
##  6 1.17  -1.04  C        3.02 -1.84  0.0206   2.78 0.00237      -0.671 
##  7 5.26   2.88  B        3.70  1.57  0.0195   2.78 0.00161       0.570 
##  8 2.06   1.18  A        2.32 -0.264 0.0152   2.78 0.0000354    -0.0958
##  9 0.442  2.23  A        2.77 -2.32  0.0172   2.78 0.00312      -0.844 
## 10 3.12   2.19  A        2.75  0.365 0.0171   2.78 0.0000765     0.133 
## # … with 190 more rows
```
…
